%!PS-Adobe-2.0 EPSF-2.0
%%BoundingBox:  0 0 567 282
%%Title: /home/smfx/projects/papers/hepp-lab-report-2017/assets/images/ECALsum.eps: Canvas_1
%%Creator: ROOT Version 6.04/06
%%CreationDate: Thu Jan 12 11:21:32 2017
%%DocumentNeededResources: ProcSet (FontSetInit)
%%EndComments
%%BeginProlog
80 dict begin
/s {stroke} def /l {lineto} def /m {moveto} def /t {translate} def
/r {rotate} def /rl {roll}  def /R {repeat} def
/d {rlineto} def /rm {rmoveto} def /gr {grestore} def /f {eofill} def
/c {setrgbcolor} def /black {0 setgray} def /sd {setdash} def
/cl {closepath} def /sf {scalefont setfont} def /lw {setlinewidth} def
/box {m dup 0 exch d exch 0 d 0 exch neg d cl} def
/NC{systemdict begin initclip end}def/C{NC box clip newpath}def
/bl {box s} def /bf {gsave box gsave f grestore 1 lw [] 0 sd s grestore} def /Y { 0 exch d} def /X { 0 d} def 
/K {{pop pop 0 moveto} exch kshow} bind def
/ita {/ang 15 def gsave [1 0 ang dup sin exch cos div 1 0 0] concat} def 
/mp {newpath /y exch def /x exch def} def
/side {[w .77 mul w .23 mul] .385 w mul sd w 0 l currentpoint t -144 r} def
/mr {mp x y w2 0 360 arc} def /m24 {mr s} def /m20 {mr f} def
/mb {mp x y w2 add m w2 neg 0 d 0 w neg d w 0 d 0 w d cl} def
/mt {mp x y w2 add m w2 neg w neg d w 0 d cl} def
/m21 {mb f} def /m25 {mb s} def /m22 {mt f} def /m26{mt s} def
/m23 {mp x y w2 sub m w2 w d w neg 0 d cl f} def
/m27 {mp x y w2 add m w3 neg w2 neg d w3 w2 neg d w3 w2 d cl s} def
/m28 {mp x w2 sub y w2 sub w3 add m w3 0 d  0 w3 neg d w3 0 d 0 w3 d w3 0 d  0 w3 d w3 neg 0 d 0 w3 d w3 neg 0 d 0 w3 neg d w3 neg 0 d cl s } def
/m29 {mp gsave x w2 sub y w2 add w3 sub m currentpoint t 4 {side} repeat cl fill gr} def
/m30 {mp gsave x w2 sub y w2 add w3 sub m currentpoint t 4 {side} repeat cl s gr} def
/m31 {mp x y w2 sub m 0 w d x w2 sub y m w 0 d x w2 sub y w2 add m w w neg d x w2 sub y w2 sub m w w d s} def
/m32 {mp x y w2 sub m w2 w d w neg 0 d cl s} def
/m33 {mp x y w2 add m w3 neg w2 neg d w3 w2 neg d w3 w2 d cl f} def
/m34 {mp x w2 sub y w2 sub w3 add m w3 0 d  0 w3 neg d w3 0 d 0 w3 d w3 0 d  0 w3 d w3 neg 0 d 0 w3 d w3 neg 0 d 0 w3 neg d w3 neg 0 d cl f } def
/m2 {mp x y w2 sub m 0 w d x w2 sub y m w 0 d s} def
/m5 {mp x w2 sub y w2 sub m w w d x w2 sub y w2 add m w w neg d s} def
%%IncludeResource: ProcSet (FontSetInit)
%%IncludeResource: font Times-Roman
%%IncludeResource: font Times-Italic
%%IncludeResource: font Times-Bold
%%IncludeResource: font Times-BoldItalic
%%IncludeResource: font Helvetica
%%IncludeResource: font Helvetica-Oblique
%%IncludeResource: font Helvetica-Bold
%%IncludeResource: font Helvetica-BoldOblique
%%IncludeResource: font Courier
%%IncludeResource: font Courier-Oblique
%%IncludeResource: font Courier-Bold
%%IncludeResource: font Courier-BoldOblique
%%IncludeResource: font Symbol
%%IncludeResource: font ZapfDingbats
/reEncode {exch findfont dup length dict begin {1 index /FID eq  {pop pop} {def} ifelse } forall /Encoding exch def currentdict end dup /FontName get exch definefont pop } def [/Times-Bold /Times-Italic /Times-BoldItalic /Helvetica /Helvetica-Oblique
 /Helvetica-Bold /Helvetica-BoldOblique /Courier /Courier-Oblique /Courier-Bold /Courier-BoldOblique /Times-Roman /AvantGarde-Book /AvantGarde-BookOblique /AvantGarde-Demi /AvantGarde-DemiOblique /Bookman-Demi /Bookman-DemiItalic /Bookman-Light
 /Bookman-LightItalic /Helvetica-Narrow /Helvetica-Narrow-Bold /Helvetica-Narrow-BoldOblique /Helvetica-Narrow-Oblique /NewCenturySchlbk-Roman /NewCenturySchlbk-Bold /NewCenturySchlbk-BoldItalic /NewCenturySchlbk-Italic /Palatino-Bold
 /Palatino-BoldItalic /Palatino-Italic /Palatino-Roman ] {ISOLatin1Encoding reEncode } forall
%%EndProlog
%%BeginSetup
%%EndSetup
newpath  gsave  .25 .25 scale  gsave  0 0 t black[  ] 0 sd 3 lw 1 1 1 c 2268 1128 0 0 bf black 1 1 1 c 1814 903 227 113 bf black 1814 903 227 113 bl 1 1 1 c 1814 903 227 113 bf black 1814 903 227 113 bl 0 0 1 c[ 4 8] 0 sd 1 1 1 c black 0 0 1 c 227
 135 m 4 X -2 Y 5 X 2 Y 4 X -9 Y 5 X 9 Y 4 X 3 Y 5 X 5 Y 4 X -8 Y 5 X 3 Y 4 X -3 Y 5 X -9 Y 5 X 10 Y 4 X -10 Y 5 X 19 Y 4 X -9 Y 5 X -8 Y 4 X 7 Y 5 X -7 Y 4 X 2 Y 5 X 5 Y 4 X -2 Y 5 X 7 Y 4 X -4 Y 5 X -13 Y 4 X 18 Y 5 X -11 Y 4 X -2 Y 5 X 3 Y 4 X 7 Y
 5 X -7 Y 4 X -5 Y 5 X 2 Y 5 X -3 Y 4 X 11 Y 5 X -6 Y 4 X -4 Y 9 X 2 Y 9 X -2 Y 5 X 9 Y 4 X -5 Y 5 X 6 Y 4 X -6 Y 5 X 8 Y 4 X -5 Y 5 X -10 Y 4 X 20 Y 5 X -18 Y 4 X 11 Y 5 X -5 Y 5 X -1 Y 4 X -5 Y 5 X 15 Y 4 X -9 Y 5 X -3 Y 4 X 7 Y 5 X 5 Y 4 X -9 Y 5
 X -1 Y 4 X -5 Y 5 X -4 Y 4 X 2 Y 5 X 18 Y 4 X -13 Y 5 X 5 Y 4 X -3 Y 5 X -5 Y 4 X 11 Y 5 X -11 Y 4 X 15 Y 5 X -15 Y 5 X 11 Y 4 X -1 Y 5 X -9 Y 4 X 2 Y 5 X 3 Y 4 X -3 Y 5 X 5 Y 4 X -5 Y 5 X 3 Y 4 X -6 Y 5 X 6 Y 4 X -3 Y 9 X 2 Y 5 X 1 Y 4 X -5 Y 5 X 5
 Y 4 X -3 Y 5 X 8 Y 4 X -3 Y 5 X 5 Y 5 X -7 Y 13 X -3 Y 5 X -2 Y 4 X 5 Y 9 X 4 Y 5 X -4 Y 4 X -3 Y 5 X 2 Y 4 X -4 Y 5 X 15 Y 4 X -8 Y 5 X -10 Y 4 X 10 Y 5 X -12 Y 4 X 9 Y 5 X -2 Y 4 X 5 Y 5 X -2 Y 5 X 14 Y 4 X -2 Y 5 X -7 Y 4 X 12 Y 5 X -15 Y 4 X 2 Y
 5 X 1 Y 4 X 5 Y 5 X -10 Y 4 X 5 Y 5 X -8 Y 4 X 8 Y 5 X -5 Y 4 X 4 Y 5 X 5 Y 4 X 5 Y 5 X -15 Y 4 X 3 Y 5 X 8 Y 4 X 5 Y 5 X 9 Y 5 X -14 Y 4 X 7 Y 5 X -15 Y 4 X 23 Y 5 X -5 Y 4 X 2 Y 5 X 13 Y 4 X -18 Y 5 X 22 Y 4 X -7 Y 5 X -17 Y 4 X 15 Y 5 X 4 Y 4 X
 20 Y 5 X -8 Y 4 X -12 Y 5 X 47 Y 4 X -27 Y 5 X 3 Y 4 X 25 Y 5 X -18 Y 9 X -10 Y 5 X 47 Y 4 X -4 Y 5 X 22 Y 4 X -8 Y 5 X 43 Y 4 X -13 Y 5 X -3 Y 4 X 13 Y 5 X 77 Y 4 X -32 Y 5 X 24 Y 4 X 37 Y 5 X 16 Y 4 X 11 Y 5 X 36 Y 4 X -55 Y 5 X 70 Y 4 X -13 Y 5 X
 62 Y 5 X -22 Y 4 X 39 Y 5 X 10 Y 4 X 72 Y 5 X -7 Y 9 X 25 Y 4 X 32 Y 5 X 42 Y 4 X -55 Y 5 X -54 Y 4 X 144 Y 5 X -67 Y 4 X 81 Y 5 X 6 Y 4 X -35 Y 5 X 39 Y 4 X -7 Y 5 X 14 Y 4 X 36 Y 5 X -28 Y 5 X -45 Y 4 X 65 Y 5 X -44 Y 4 X 24 Y 5 X 20 Y 9 X 25 Y 4
 X -20 Y 5 X -45 Y 4 X -49 Y 5 X 47 Y 4 X 86 Y 5 X -34 Y 4 X -18 Y 5 X 10 Y 4 X -10 Y 5 X -24 Y 4 X 9 Y 5 X 20 Y 5 X 42 Y 4 X -51 Y 9 X 5 Y 5 X 14 Y 4 X 23 Y 5 X -40 Y 4 X 122 Y 5 X -135 Y 4 X 82 Y 5 X -51 Y 4 X 36 Y 5 X 60 Y 4 X -20 Y 5 X -27 Y 4 X
 17 Y 5 X -12 Y 4 X -40 Y 5 X 42 Y 4 X -14 Y 5 X 32 Y 5 X 20 Y 4 X 9 Y 5 X 20 Y 4 X 16 Y 5 X -58 Y 4 X 40 Y 5 X 35 Y 4 X -99 Y 5 X 14 Y 4 X 74 Y 5 X -76 Y 4 X 55 Y 5 X -82 Y 4 X -58 Y 5 X -42 Y 4 X 38 Y 5 X 19 Y 4 X -46 Y 5 X -35 Y 4 X -58 Y 5 X -10
 Y 5 X 31 Y 4 X -85 Y 5 X -30 Y 4 X 38 Y 5 X -48 Y 4 X -12 Y 5 X -44 Y 9 X -48 Y 4 X 30 Y 5 X -54 Y 4 X 24 Y 5 X -107 Y 4 X 21 Y 5 X -25 Y 4 X -13 Y 5 X -34 Y 4 X -30 Y 5 X 7 Y 4 X -20 Y 5 X -47 Y 5 X -4 Y 4 X -16 Y 5 X -5 Y 4 X -27 Y 5 X 20 Y 4 X
 -29 Y 5 X -8 Y 4 X -8 Y 5 X 3 Y 4 X 5 Y 5 X -20 Y 4 X -2 Y 5 X 4 Y 4 X -9 Y 5 X 9 Y 4 X -7 Y 5 X 3 Y 4 X 2 Y 5 X -5 Y 9 X 5 Y 9 X 3 Y 5 X -3 Y 4 X -7 Y 5 X 2 Y 4 X -3 Y 5 X 5 Y 4 X 3 Y 5 X -2 Y 9 X 7 Y 4 X -8 Y 5 X 5 Y 4 X -5 Y 5 X 6 Y 4 X -3 Y 5 X
 -5 Y 4 X 2 Y 19 X 1 Y 4 X 7 Y 5 X -8 Y 4 X -5 Y 5 X 1 Y 4 X 2 Y 5 X -3 Y 4 X 1 Y 5 X 5 Y 4 X -1 Y 5 X 1 Y 4 X 4 Y 5 X -5 Y 4 X 1 Y 5 X -5 Y 4 X 5 Y 9 X -6 Y 5 X 3 Y 4 X 2 Y 5 X 6 Y 5 X -3 Y 4 X -2 Y 5 X -3 Y 18 X 3 Y 4 X 5 Y 5 X -11 Y 4 X 6 Y 5 X 2
 Y 4 X -5 Y 5 X 5 Y 4 X -5 Y 5 X 8 Y 4 X -8 Y 5 X 7 Y 4 X -4 Y 5 X 9 Y 5 X -7 Y 4 X -2 Y 5 X 5 Y 4 X -1 Y 5 X -7 Y 4 X 3 Y 5 X -1 Y 4 X 5 Y 5 X -10 Y 4 X 5 Y 9 X 5 Y 5 X -4 Y 4 X -3 Y 5 X 2 Y 4 X -2 Y 5 X 2 Y 9 X 3 Y 4 X -3 Y 5 X -4 Y 5 X -1 Y 4 X 3
 Y 5 X 5 Y 4 X -3 Y 5 X -4 Y 4 X 5 Y 5 X -1 Y 4 X 1 Y 9 X 4 Y 5 X -4 Y 4 X -3 Y 9 X 5 Y 5 X -3 Y 4 X -4 Y 5 X 2 Y 4 X -3 Y 5 X s[  ] 0 sd 6 lw 0.95 0.95 0.95 c black 0 0 1 c 909 174 m 7 7 d 6 9 d 7 8 d 7 10 d 7 11 d 7 11 d 6 13 d 7 13 d 7 14 d 7 15 d
 6 16 d 7 17 d 7 19 d 7 19 d 7 20 d 6 21 d 7 22 d 7 22 d 7 24 d 7 24 d 6 25 d 7 25 d 7 26 d 7 26 d 6 26 d 7 27 d 7 26 d 7 26 d 7 26 d 6 26 d 7 24 d 7 24 d 7 23 d 7 22 d 6 21 d 7 19 d 7 18 d 7 16 d 6 14 d 7 12 d 7 11 d 7 8 d 7 6 d 6 5 d 7 1 d 7 X 7 -2
 d 7 -5 d 6 -7 d s 1241 958 m 7 -9 d 7 -11 d 7 -13 d 6 -14 d 7 -17 d 7 -18 d 7 -20 d 7 -21 d 6 -22 d 7 -23 d 7 -24 d 7 -25 d 7 -26 d 6 -26 d 7 -26 d 7 -26 d 7 -27 d 6 -26 d 7 -26 d 7 -26 d 7 -25 d 7 -25 d 6 -24 d 7 -23 d 7 -22 d 7 -22 d 7 -21 d 6 -20
 d 7 -18 d 7 -18 d 7 -17 d 6 -16 d 7 -15 d 7 -14 d 7 -13 d 7 -12 d 6 -11 d 7 -11 d 7 -9 d 7 -9 d 7 -8 d 6 -7 d 7 -7 d 7 -6 d 7 -5 d 6 -5 d 7 -4 d 7 -4 d 7 -4 d s 1574 137 m 7 -3 d s black 3 lw 1 1 1 c 453 181 1769 874 bf black 1769 874 m 453 X s 2222
 874 m 181 Y s 2222 1055 m -453 X s 1769 1055 m -181 Y s 1 1 1 c black
 gsave  2268 1128 0 0 C 1934.95 1025.68 t 0 r /Helvetica findfont 31.4961 sf 0 0 m (ecalSum) show NC gr  1769 1019 m 453 X s 0 0 1 c black 0 0 1 c
 gsave  2268 1128 0 0 C 1791.17 992.811 t 0 r /Helvetica findfont 20.5409 sf 0 0 m (Entries ) show NC gr  black 0 0 1 c
 gsave  2268 1128 0 0 C 2136.25 992.811 t 0 r /Helvetica findfont 20.5409 sf 0 0 m ( 60184) show NC gr  black 0 0 1 c
 gsave  2268 1128 0 0 C 1791.17 957.206 t 0 r /Helvetica findfont 20.5409 sf 0 0 m (Mean ) show NC gr  black 0 0 1 c
 gsave  2268 1128 0 0 C 2085.59 957.206 t 0 r /Helvetica findfont 20.5409 sf 0 0 m ( 101.879673) show NC gr  1 0 0 c black 1 0 0 c
 gsave  2268 1128 0 0 C 1791.17 921.602 t 0 r /Helvetica findfont 20.5409 sf 0 0 m (Entries ) show NC gr  black 1 0 0 c
 gsave  2268 1128 0 0 C 2136.25 921.602 t 0 r /Helvetica findfont 20.5409 sf 0 0 m ( 60184) show NC gr  black 1 0 0 c
 gsave  2268 1128 0 0 C 1791.17 884.629 t 0 r /Helvetica findfont 20.5409 sf 0 0 m (Mean ) show NC gr  black 1 0 0 c
 gsave  2268 1128 0 0 C 2096.54 884.629 t 0 r /Helvetica findfont 20.5409 sf 0 0 m ( 99.654673) show NC gr  black 227 113 m 1814 X s
 gsave  2268 1128 0 0 C 1818.56 39.7124 t 0 r /Helvetica findfont 36.9736 sf 0 0 m ( Energy, GeV) show NC gr  227 140 m -27 Y s 272 126 m -13 Y s 317 126 m -13 Y s 362 126 m -13 Y s 408 126 m -13 Y s 453 140 m -27 Y s 498 126 m -13 Y s 543 126 m -13
 Y s 589 126 m -13 Y s 634 126 m -13 Y s 679 140 m -27 Y s 724 126 m -13 Y s 770 126 m -13 Y s 815 126 m -13 Y s 860 126 m -13 Y s 905 140 m -27 Y s 951 126 m -13 Y s 996 126 m -13 Y s 1041 126 m -13 Y s 1086 126 m -13 Y s 1132 140 m -27 Y s 1177 126
 m -13 Y s 1222 126 m -13 Y s 1267 126 m -13 Y s 1313 126 m -13 Y s 1358 140 m -27 Y s 1403 126 m -13 Y s 1448 126 m -13 Y s 1494 126 m -13 Y s 1539 126 m -13 Y s 1584 140 m -27 Y s 1629 126 m -13 Y s 1674 126 m -13 Y s 1720 126 m -13 Y s 1765 126 m
 -13 Y s 1810 140 m -27 Y s 1855 126 m -13 Y s 1901 126 m -13 Y s 1946 126 m -13 Y s 1991 126 m -13 Y s 2036 140 m -27 Y s 2036 140 m -27 Y s
 gsave  2268 1128 0 0 C 205.409 76.6861 t 0 r /Helvetica findfont 36.9736 sf 0 0 m (80) show NC gr 
 gsave  2268 1128 0 0 C 431.359 76.6861 t 0 r /Helvetica findfont 36.9736 sf 0 0 m (85) show NC gr 
 gsave  2268 1128 0 0 C 657.309 76.6861 t 0 r /Helvetica findfont 36.9736 sf 0 0 m (90) show NC gr 
 gsave  2268 1128 0 0 C 884.629 76.6861 t 0 r /Helvetica findfont 36.9736 sf 0 0 m (95) show NC gr 
 gsave  2268 1128 0 0 C 1100.99 76.6861 t 0 r /Helvetica findfont 36.9736 sf 0 0 m (100) show NC gr 
 gsave  2268 1128 0 0 C 1326.94 76.6861 t 0 r /Helvetica findfont 36.9736 sf 0 0 m (105) show NC gr 
 gsave  2268 1128 0 0 C 1552.89 76.6861 t 0 r /Helvetica findfont 36.9736 sf 0 0 m (110) show NC gr 
 gsave  2268 1128 0 0 C 1778.84 76.6861 t 0 r /Helvetica findfont 36.9736 sf 0 0 m (115) show NC gr 
 gsave  2268 1128 0 0 C 2006.16 76.6861 t 0 r /Helvetica findfont 36.9736 sf 0 0 m (120) show NC gr  227 113 m 903 Y s
 gsave  2268 1128 0 0 C 112.29 876.412 t 90 r /Helvetica findfont 36.9736 sf 0 0 m ( #events) show NC gr  281 113 m -54 X s 254 146 m -27 X s 254 180 m -27 X s 254 213 m -27 X s 254 247 m -27 X s 281 280 m -54 X s 254 314 m -27 X s 254 347 m -27 X s
 254 381 m -27 X s 254 415 m -27 X s 281 448 m -54 X s 254 482 m -27 X s 254 515 m -27 X s 254 549 m -27 X s 254 582 m -27 X s 281 616 m -54 X s 254 649 m -27 X s 254 683 m -27 X s 254 716 m -27 X s 254 750 m -27 X s 281 783 m -54 X s 254 817 m -27 X
 s 254 850 m -27 X s 254 884 m -27 X s 254 917 m -27 X s 281 951 m -54 X s 281 951 m -54 X s 254 984 m -27 X s
 gsave  2268 1128 0 0 C 195.823 99.9658 t 0 r /Helvetica findfont 36.9736 sf 0 0 m (0) show NC gr 
 gsave  2268 1128 0 0 C 154.742 267.032 t 0 r /Helvetica findfont 36.9736 sf 0 0 m (100) show NC gr 
 gsave  2268 1128 0 0 C 154.742 435.467 t 0 r /Helvetica findfont 36.9736 sf 0 0 m (200) show NC gr 
 gsave  2268 1128 0 0 C 154.742 602.533 t 0 r /Helvetica findfont 36.9736 sf 0 0 m (300) show NC gr 
 gsave  2268 1128 0 0 C 154.742 769.599 t 0 r /Helvetica findfont 36.9736 sf 0 0 m (400) show NC gr 
 gsave  2268 1128 0 0 C 154.742 938.035 t 0 r /Helvetica findfont 36.9736 sf 0 0 m (500) show NC gr  1 1 1 c black
 gsave  2268 1128 0 0 C 912.016 1073.6 t 0 r /Helvetica findfont 54.7758 sf 0 0 m (ECAL sum energy) show NC gr 
 gr  gr showpage
end
%%EOF
