%!PS-Adobe-2.0 EPSF-2.0
%%BoundingBox:  0 0 567 282
%%Title: /home/smfx/projects/papers/hepp-lab-report-2017/assets/images/ECALsumCor.eps: Canvas_1
%%Creator: ROOT Version 6.04/06
%%CreationDate: Thu Jan 12 11:22:43 2017
%%DocumentNeededResources: ProcSet (FontSetInit)
%%EndComments
%%BeginProlog
80 dict begin
/s {stroke} def /l {lineto} def /m {moveto} def /t {translate} def
/r {rotate} def /rl {roll}  def /R {repeat} def
/d {rlineto} def /rm {rmoveto} def /gr {grestore} def /f {eofill} def
/c {setrgbcolor} def /black {0 setgray} def /sd {setdash} def
/cl {closepath} def /sf {scalefont setfont} def /lw {setlinewidth} def
/box {m dup 0 exch d exch 0 d 0 exch neg d cl} def
/NC{systemdict begin initclip end}def/C{NC box clip newpath}def
/bl {box s} def /bf {gsave box gsave f grestore 1 lw [] 0 sd s grestore} def /Y { 0 exch d} def /X { 0 d} def 
/K {{pop pop 0 moveto} exch kshow} bind def
/ita {/ang 15 def gsave [1 0 ang dup sin exch cos div 1 0 0] concat} def 
/mp {newpath /y exch def /x exch def} def
/side {[w .77 mul w .23 mul] .385 w mul sd w 0 l currentpoint t -144 r} def
/mr {mp x y w2 0 360 arc} def /m24 {mr s} def /m20 {mr f} def
/mb {mp x y w2 add m w2 neg 0 d 0 w neg d w 0 d 0 w d cl} def
/mt {mp x y w2 add m w2 neg w neg d w 0 d cl} def
/m21 {mb f} def /m25 {mb s} def /m22 {mt f} def /m26{mt s} def
/m23 {mp x y w2 sub m w2 w d w neg 0 d cl f} def
/m27 {mp x y w2 add m w3 neg w2 neg d w3 w2 neg d w3 w2 d cl s} def
/m28 {mp x w2 sub y w2 sub w3 add m w3 0 d  0 w3 neg d w3 0 d 0 w3 d w3 0 d  0 w3 d w3 neg 0 d 0 w3 d w3 neg 0 d 0 w3 neg d w3 neg 0 d cl s } def
/m29 {mp gsave x w2 sub y w2 add w3 sub m currentpoint t 4 {side} repeat cl fill gr} def
/m30 {mp gsave x w2 sub y w2 add w3 sub m currentpoint t 4 {side} repeat cl s gr} def
/m31 {mp x y w2 sub m 0 w d x w2 sub y m w 0 d x w2 sub y w2 add m w w neg d x w2 sub y w2 sub m w w d s} def
/m32 {mp x y w2 sub m w2 w d w neg 0 d cl s} def
/m33 {mp x y w2 add m w3 neg w2 neg d w3 w2 neg d w3 w2 d cl f} def
/m34 {mp x w2 sub y w2 sub w3 add m w3 0 d  0 w3 neg d w3 0 d 0 w3 d w3 0 d  0 w3 d w3 neg 0 d 0 w3 d w3 neg 0 d 0 w3 neg d w3 neg 0 d cl f } def
/m2 {mp x y w2 sub m 0 w d x w2 sub y m w 0 d s} def
/m5 {mp x w2 sub y w2 sub m w w d x w2 sub y w2 add m w w neg d s} def
%%IncludeResource: ProcSet (FontSetInit)
%%IncludeResource: font Times-Roman
%%IncludeResource: font Times-Italic
%%IncludeResource: font Times-Bold
%%IncludeResource: font Times-BoldItalic
%%IncludeResource: font Helvetica
%%IncludeResource: font Helvetica-Oblique
%%IncludeResource: font Helvetica-Bold
%%IncludeResource: font Helvetica-BoldOblique
%%IncludeResource: font Courier
%%IncludeResource: font Courier-Oblique
%%IncludeResource: font Courier-Bold
%%IncludeResource: font Courier-BoldOblique
%%IncludeResource: font Symbol
%%IncludeResource: font ZapfDingbats
/reEncode {exch findfont dup length dict begin {1 index /FID eq  {pop pop} {def} ifelse } forall /Encoding exch def currentdict end dup /FontName get exch definefont pop } def [/Times-Bold /Times-Italic /Times-BoldItalic /Helvetica /Helvetica-Oblique
 /Helvetica-Bold /Helvetica-BoldOblique /Courier /Courier-Oblique /Courier-Bold /Courier-BoldOblique /Times-Roman /AvantGarde-Book /AvantGarde-BookOblique /AvantGarde-Demi /AvantGarde-DemiOblique /Bookman-Demi /Bookman-DemiItalic /Bookman-Light
 /Bookman-LightItalic /Helvetica-Narrow /Helvetica-Narrow-Bold /Helvetica-Narrow-BoldOblique /Helvetica-Narrow-Oblique /NewCenturySchlbk-Roman /NewCenturySchlbk-Bold /NewCenturySchlbk-BoldItalic /NewCenturySchlbk-Italic /Palatino-Bold
 /Palatino-BoldItalic /Palatino-Italic /Palatino-Roman ] {ISOLatin1Encoding reEncode } forall
%%EndProlog
%%BeginSetup
%%EndSetup
newpath  gsave  .25 .25 scale  gsave  0 0 t black[  ] 0 sd 3 lw 1 1 1 c 2268 1128 0 0 bf black 1 1 1 c 1814 903 227 113 bf black 1814 903 227 113 bl 1 1 1 c 1814 903 227 113 bf black 1814 903 227 113 bl 1 0 0 c 1 1 1 c black 1 0 0 c 227 132 m 9 X 1 Y
 4 X -7 Y 5 X 26 Y 4 X -20 Y 5 X 7 Y 4 X 4 Y 5 X -13 Y 4 X -2 Y 5 X 5 Y 5 X -1 Y 4 X 5 Y 5 X -4 Y 4 X -9 Y 9 X 11 Y 5 X 8 Y 4 X -4 Y 5 X -7 Y 4 X 3 Y 5 X 4 Y 4 X -4 Y 5 X 2 Y 4 X 11 Y 5 X -5 Y 9 X -10 Y 4 X -3 Y 5 X -8 Y 4 X 10 Y 5 X -4 Y 9 X 11 Y 5
 X -2 Y 4 X -7 Y 5 X 3 Y 4 X -7 Y 5 X 6 Y 4 X 18 Y 5 X -11 Y 4 X -7 Y 5 X -2 Y 4 X 3 Y 5 X -5 Y 18 X 9 Y 4 X -13 Y 10 X 2 Y 4 X 9 Y 9 X 12 Y 5 X -6 Y 4 X 2 Y 5 X -15 Y 4 X 4 Y 5 X -4 Y 4 X 4 Y 5 X -4 Y 4 X -4 Y 5 X 6 Y 4 X -2 Y 5 X 7 Y 9 X -7 Y 4 X 9
 Y 5 X -7 Y 4 X 9 Y 5 X -13 Y 5 X 13 Y 4 X -6 Y 5 X -5 Y 4 X 11 Y 5 X -2 Y 4 X -2 Y 5 X -2 Y 4 X -1 Y 5 X -12 Y 4 X 8 Y 5 X 9 Y 4 X -2 Y 14 X 4 Y 4 X 2 Y 5 X -2 Y 4 X -9 Y 5 X 7 Y 4 X -5 Y 5 X 16 Y 5 X -18 Y 4 X 22 Y 5 X -13 Y 9 X 4 Y 4 X 15 Y 9 X -2
 Y 5 X -8 Y 9 X 10 Y 4 X -6 Y 5 X 23 Y 4 X 1 Y 5 X -15 Y 4 X 21 Y 5 X -13 Y 4 X 7 Y 5 X -3 Y 4 X 17 Y 5 X -6 Y 5 X 6 Y 4 X 43 Y 5 X -40 Y 4 X 13 Y 5 X -24 Y 4 X 37 Y 5 X 10 Y 4 X 2 Y 5 X -25 Y 4 X 4 Y 5 X -4 Y 4 X 30 Y 5 X -3 Y 4 X 28 Y 5 X 5 Y 4 X 4
 Y 5 X 7 Y 4 X -7 Y 5 X 35 Y 4 X -5 Y 5 X 48 Y 5 X -52 Y 4 X 43 Y 5 X 30 Y 4 X 6 Y 5 X 26 Y 4 X -28 Y 5 X 24 Y 4 X 24 Y 5 X 42 Y 4 X -36 Y 5 X 13 Y 4 X 43 Y 5 X -26 Y 4 X 22 Y 5 X 60 Y 4 X -20 Y 5 X -2 Y 4 X 131 Y 5 X -111 Y 4 X 12 Y 5 X 87 Y 5 X -46
 Y 4 X 13 Y 5 X 35 Y 4 X 49 Y 5 X 9 Y 4 X -114 Y 5 X 56 Y 4 X 34 Y 5 X 4 Y 4 X 65 Y 5 X -60 Y 4 X 56 Y 5 X -20 Y 4 X -90 Y 5 X 178 Y 4 X -53 Y 5 X -16 Y 4 X 18 Y 5 X 28 Y 4 X 17 Y 5 X -22 Y 5 X 89 Y 4 X -69 Y 5 X 120 Y 4 X -80 Y 5 X 16 Y 4 X 25 Y 5 X
 24 Y 4 X -37 Y 5 X -53 Y 4 X 38 Y 5 X 69 Y 4 X -71 Y 5 X 9 Y 9 X 53 Y 4 X -19 Y 5 X 30 Y 4 X 26 Y 5 X -32 Y 4 X 2 Y 5 X 26 Y 5 X -26 Y 4 X -24 Y 5 X -49 Y 4 X 80 Y 5 X -58 Y 4 X 101 Y 5 X -43 Y 4 X 29 Y 5 X -66 Y 4 X 6 Y 5 X 15 Y 4 X -85 Y 5 X -5 Y
 4 X 92 Y 5 X -34 Y 4 X 52 Y 5 X -9 Y 4 X -77 Y 5 X 53 Y 5 X -129 Y 4 X 80 Y 5 X -51 Y 4 X 58 Y 5 X 40 Y 4 X -51 Y 5 X -17 Y 4 X -78 Y 5 X -38 Y 4 X 32 Y 5 X 26 Y 4 X -13 Y 5 X 17 Y 4 X -37 Y 5 X -66 Y 4 X -50 Y 5 X 37 Y 4 X 26 Y 5 X -48 Y 4 X 7 Y 5
 X -11 Y 5 X -60 Y 4 X -5 Y 5 X 59 Y 4 X -33 Y 5 X -49 Y 4 X 13 Y 5 X -35 Y 4 X -19 Y 5 X 30 Y 4 X -81 Y 5 X -20 Y 4 X -8 Y 9 X -50 Y 5 X -8 Y 4 X 47 Y 5 X -69 Y 9 X 6 Y 4 X -21 Y 5 X 11 Y 5 X -35 Y 4 X -26 Y 5 X 29 Y 4 X -41 Y 5 X -3 Y 4 X -21 Y 5 X
 13 Y 4 X -4 Y 5 X -13 Y 4 X -20 Y 5 X -12 Y 4 X -3 Y 5 X 7 Y 4 X -5 Y 5 X -38 Y 4 X 4 Y 5 X 15 Y 4 X -23 Y 5 X -7 Y 4 X 6 Y 5 X -15 Y 5 X 11 Y 4 X -9 Y 9 X -2 Y 5 X -2 Y 4 X -10 Y 9 X -1 Y 5 X -2 Y 4 X -2 Y 5 X -11 Y 4 X 5 Y 5 X -7 Y 4 X 15 Y 5 X
 -12 Y 4 X 12 Y 5 X -6 Y 9 X -7 Y 4 X 1 Y 5 X 6 Y 9 X -2 Y 5 X 2 Y 9 X -9 Y 4 X 3 Y 5 X 4 Y 4 X -7 Y 5 X 9 Y 9 X -2 Y 4 X -2 Y 5 X -5 Y 4 X 7 Y 5 X 6 Y 4 X -10 Y 5 X -1 Y 4 X 3 Y 9 X -3 Y 5 X 1 Y 5 X -1 Y 9 X 7 Y 4 X 2 Y 5 X -8 Y 4 X 6 Y 5 X -6 Y 4 X
 4 Y 9 X 4 Y 5 X -2 Y 4 X -4 Y 9 X -5 Y 5 X 5 Y 4 X -3 Y 5 X 1 Y 4 X 8 Y 5 X -6 Y 4 X 10 Y 5 X -10 Y 5 X 6 Y 4 X -8 Y 5 X -1 Y 4 X 5 Y 5 X -5 Y 9 X 7 Y 4 X 2 Y 5 X -2 Y 4 X -2 Y 5 X -7 Y 4 X 7 Y 5 X -4 Y 4 X 2 Y 5 X -2 Y 9 X 4 Y 4 X -2 Y 5 X -2 Y 5 X
 4 Y 4 X -4 Y 5 X 2 Y 4 X 6 Y 5 X -2 Y 9 X -11 Y 9 X 4 Y 4 X 1 Y 5 X 2 Y 4 X -2 Y 5 X 2 Y 4 X -2 Y 5 X 4 Y 4 X 2 Y 5 X -4 Y 4 X -3 Y 5 X 3 Y 4 X 4 Y 5 X -6 Y 5 X -3 Y 4 X 3 Y 5 X 2 Y 4 X -3 Y 5 X 3 Y 4 X -3 Y 14 X -4 Y 9 X 2 Y 4 X -2 Y 5 X 5 Y 4 X 8
 Y 5 X -8 Y 9 X -1 Y 4 X -4 Y 5 X s 6 lw 0.95 0.95 0.95 c black 1 0 0 c 864 352 m 7 18 d 7 19 d 7 19 d 8 21 d 7 20 d 7 22 d 7 22 d 8 22 d 7 23 d 7 24 d 7 23 d 8 24 d 7 24 d 7 24 d 7 24 d 8 23 d 7 24 d 7 23 d 7 22 d 8 22 d 7 20 d 7 20 d 7 20 d 7 17 d
 8 17 d 7 16 d 7 14 d 7 12 d 8 11 d 7 10 d 7 7 d 7 6 d 8 4 d 7 3 d 7 1 d 7 -2 d 8 -3 d 7 -4 d 7 -7 d 7 -8 d 8 -10 d 7 -12 d 7 -13 d 7 -14 d 8 -16 d 7 -17 d 7 -18 d 7 -20 d 7 -20 d s 1218 809 m 8 -21 d 7 -22 d 7 -23 d 7 -23 d 8 -23 d 7 -24 d 7 -24 d 7
 -24 d 8 -23 d 7 -24 d 7 -24 d 7 -23 d 8 -23 d 7 -22 d 7 -22 d 7 -21 d 8 -21 d 7 -20 d 7 -19 d 7 -19 d 7 -17 d 8 -17 d 7 -16 d 7 -16 d 7 -14 d 8 -14 d 7 -13 d 7 -12 d 7 -11 d 8 -11 d 7 -10 d 7 -9 d 7 -9 d 8 -7 d 7 -8 d 7 -6 d 7 -7 d 8 -5 d 7 -5 d 7
 -5 d 7 -4 d 7 -4 d 8 -4 d 7 -3 d 7 -3 d 7 -2 d 8 -2 d 7 -2 d 7 -2 d s 1573 126 m 7 -2 d s black 3 lw 1 1 1 c 453 181 1769 874 bf black 1769 874 m 453 X s 2222 874 m 181 Y s 2222 1055 m -453 X s 1769 1055 m -181 Y s 1 1 1 c black
 gsave  2268 1128 0 0 C 1885.66 1017.46 t 0 r /Helvetica findfont 38.343 sf 0 0 m (corHistoSum) show NC gr  1769 1010 m 453 X s
 gsave  2268 1128 0 0 C 1791.17 972.27 t 0 r /Helvetica findfont 38.343 sf 0 0 m (Entries ) show NC gr 
 gsave  2268 1128 0 0 C 2082.85 973.639 t 0 r /Helvetica findfont 38.343 sf 0 0 m ( 60184) show NC gr 
 gsave  2268 1128 0 0 C 1791.17 928.449 t 0 r /Helvetica findfont 38.343 sf 0 0 m (Mean  ) show NC gr 
 gsave  2268 1128 0 0 C 2082.85 929.819 t 0 r /Helvetica findfont 38.343 sf 0 0 m (  99.37) show NC gr 
 gsave  2268 1128 0 0 C 1791.17 883.259 t 0 r /Helvetica findfont 38.343 sf 0 0 m (Std Dev   ) show NC gr 
 gsave  2268 1128 0 0 C 2082.85 884.629 t 0 r /Helvetica findfont 38.343 sf 0 0 m (  4.486) show NC gr  227 113 m 1814 X s 227 140 m -27 Y s 272 126 m -13 Y s 317 126 m -13 Y s 362 126 m -13 Y s 408 126 m -13 Y s 453 140 m -27 Y s 498 126 m -13 Y s
 543 126 m -13 Y s 589 126 m -13 Y s 634 126 m -13 Y s 679 140 m -27 Y s 724 126 m -13 Y s 770 126 m -13 Y s 815 126 m -13 Y s 860 126 m -13 Y s 905 140 m -27 Y s 951 126 m -13 Y s 996 126 m -13 Y s 1041 126 m -13 Y s 1086 126 m -13 Y s 1132 140 m
 -27 Y s 1177 126 m -13 Y s 1222 126 m -13 Y s 1267 126 m -13 Y s 1313 126 m -13 Y s 1358 140 m -27 Y s 1403 126 m -13 Y s 1448 126 m -13 Y s 1494 126 m -13 Y s 1539 126 m -13 Y s 1584 140 m -27 Y s 1629 126 m -13 Y s 1674 126 m -13 Y s 1720 126 m
 -13 Y s 1765 126 m -13 Y s 1810 140 m -27 Y s 1855 126 m -13 Y s 1901 126 m -13 Y s 1946 126 m -13 Y s 1991 126 m -13 Y s 2036 140 m -27 Y s 2036 140 m -27 Y s
 gsave  2268 1128 0 0 C 205.409 76.6861 t 0 r /Helvetica findfont 36.9736 sf 0 0 m (80) show NC gr 
 gsave  2268 1128 0 0 C 431.359 76.6861 t 0 r /Helvetica findfont 36.9736 sf 0 0 m (85) show NC gr 
 gsave  2268 1128 0 0 C 657.309 76.6861 t 0 r /Helvetica findfont 36.9736 sf 0 0 m (90) show NC gr 
 gsave  2268 1128 0 0 C 884.629 76.6861 t 0 r /Helvetica findfont 36.9736 sf 0 0 m (95) show NC gr 
 gsave  2268 1128 0 0 C 1100.99 76.6861 t 0 r /Helvetica findfont 36.9736 sf 0 0 m (100) show NC gr 
 gsave  2268 1128 0 0 C 1326.94 76.6861 t 0 r /Helvetica findfont 36.9736 sf 0 0 m (105) show NC gr 
 gsave  2268 1128 0 0 C 1552.89 76.6861 t 0 r /Helvetica findfont 36.9736 sf 0 0 m (110) show NC gr 
 gsave  2268 1128 0 0 C 1778.84 76.6861 t 0 r /Helvetica findfont 36.9736 sf 0 0 m (115) show NC gr 
 gsave  2268 1128 0 0 C 2006.16 76.6861 t 0 r /Helvetica findfont 36.9736 sf 0 0 m (120) show NC gr  227 113 m 903 Y s 281 113 m -54 X s 254 132 m -27 X s 254 150 m -27 X s 254 169 m -27 X s 254 188 m -27 X s 281 206 m -54 X s 254 225 m -27 X s 254
 244 m -27 X s 254 262 m -27 X s 254 281 m -27 X s 281 300 m -54 X s 254 319 m -27 X s 254 337 m -27 X s 254 356 m -27 X s 254 375 m -27 X s 281 393 m -54 X s 254 412 m -27 X s 254 431 m -27 X s 254 449 m -27 X s 254 468 m -27 X s 281 487 m -54 X s
 254 506 m -27 X s 254 524 m -27 X s 254 543 m -27 X s 254 562 m -27 X s 281 580 m -54 X s 254 599 m -27 X s 254 618 m -27 X s 254 636 m -27 X s 254 655 m -27 X s 281 674 m -54 X s 254 693 m -27 X s 254 711 m -27 X s 254 730 m -27 X s 254 749 m -27 X
 s 281 767 m -54 X s 254 786 m -27 X s 254 805 m -27 X s 254 823 m -27 X s 254 842 m -27 X s 281 861 m -54 X s 254 880 m -27 X s 254 898 m -27 X s 254 917 m -27 X s 254 936 m -27 X s 281 954 m -54 X s 281 954 m -54 X s 254 973 m -27 X s 254 992 m -27
 X s 254 1010 m -27 X s
 gsave  2268 1128 0 0 C 195.823 99.9658 t 0 r /Helvetica findfont 36.9736 sf 0 0 m (0) show NC gr 
 gsave  2268 1128 0 0 C 175.282 193.085 t 0 r /Helvetica findfont 36.9736 sf 0 0 m (50) show NC gr 
 gsave  2268 1128 0 0 C 154.742 286.203 t 0 r /Helvetica findfont 36.9736 sf 0 0 m (100) show NC gr 
 gsave  2268 1128 0 0 C 154.742 380.692 t 0 r /Helvetica findfont 36.9736 sf 0 0 m (150) show NC gr 
 gsave  2268 1128 0 0 C 154.742 473.81 t 0 r /Helvetica findfont 36.9736 sf 0 0 m (200) show NC gr 
 gsave  2268 1128 0 0 C 154.742 566.929 t 0 r /Helvetica findfont 36.9736 sf 0 0 m (250) show NC gr 
 gsave  2268 1128 0 0 C 154.742 661.417 t 0 r /Helvetica findfont 36.9736 sf 0 0 m (300) show NC gr 
 gsave  2268 1128 0 0 C 154.742 754.536 t 0 r /Helvetica findfont 36.9736 sf 0 0 m (350) show NC gr 
 gsave  2268 1128 0 0 C 154.742 847.655 t 0 r /Helvetica findfont 36.9736 sf 0 0 m (400) show NC gr 
 gsave  2268 1128 0 0 C 154.742 940.774 t 0 r /Helvetica findfont 36.9736 sf 0 0 m (450) show NC gr  1 1 1 c 453 181 1769 874 bf black 1769 874 m 453 X s 2222 874 m 181 Y s 2222 1055 m -453 X s 1769 1055 m -181 Y s 1 1 1 c black
 gsave  2268 1128 0 0 C 1885.66 1017.46 t 0 r /Helvetica findfont 38.343 sf 0 0 m (corHistoSum) show NC gr  1769 1010 m 453 X s
 gsave  2268 1128 0 0 C 1791.17 972.27 t 0 r /Helvetica findfont 38.343 sf 0 0 m (Entries ) show NC gr 
 gsave  2268 1128 0 0 C 2082.85 973.639 t 0 r /Helvetica findfont 38.343 sf 0 0 m ( 60184) show NC gr 
 gsave  2268 1128 0 0 C 1791.17 928.449 t 0 r /Helvetica findfont 38.343 sf 0 0 m (Mean  ) show NC gr 
 gsave  2268 1128 0 0 C 2082.85 929.819 t 0 r /Helvetica findfont 38.343 sf 0 0 m (  99.37) show NC gr 
 gsave  2268 1128 0 0 C 1791.17 883.259 t 0 r /Helvetica findfont 38.343 sf 0 0 m (Std Dev   ) show NC gr 
 gsave  2268 1128 0 0 C 2082.85 884.629 t 0 r /Helvetica findfont 38.343 sf 0 0 m (  4.486) show NC gr  1 1 1 c black
 gsave  2268 1128 0 0 C 847.655 1073.6 t 0 r /Helvetica findfont 54.7758 sf 0 0 m (Sum energy \(corrected\)) show NC gr 
 gr  gr showpage
end
%%EOF
